srv.battle.ChrClass,,,,,,,,,,,,,,,,,,,,
Class Name,Class Icon,Starting Copper,Starting Items,Hidden Class,Threat,Melee,Endurance,Vatality,Alchemy,Medicine,Stealth,Description,,,,,,,,
Assassin,,0,BackStab|Potion of Health|Potion of Health|Newbie Armor|Newbie Pants,FALSE,7,3,1,2,1,1,8,Masters of cloak and dagger. They wait in the shadows looking for a chance to apply their hit and run methods. Hardly ever seen by their victims.,,,,,,,,
Alchemist,,0,Flame Potion|Potion of Health|Potion of Health|Newbie Armor|Newbie Pants,TRUE,10,1,2,2,8,1,1,Masters of Alchemical magic. Their weapon of choice is their intellect. Countless hours are spent perfecting deadly alchemical potions in preparation for battle.,,,,,,,,
Brute,,0,Double Strike|Potion of Health|Potion of Health|Newbie Armor|Newbie Pants,FALSE,12,10,2,4,1,1,1,Born for battle the Brute is an unstoppable force. Wielding weapons with such force the ground would separate,,,,,,,,
Medic,,0,Chemical Waste|Potion of Health|Potion of Health|Newbie Armor|Newbie Pants,FALSE,8,1,1,2,1,8,1,"Medic's are usually used for healing, but they still need to defend themselves. Their knowledge of humanoid anatomy makes them a deadly foe to contend with.",,,,,,,,
Bard,,0,Minor Potion of Health|Minor Potion of Health|Cloth Armor,TRUE,11,1,1,2,1,1,1,,,,,,,,,
Buccaneer,,0,Minor Potion of Health|Minor Potion of Health|Cloth Armor,TRUE,9,1,1,1,1,1,1,,,,,,,,,
Ranger,,0,Minor Potion of Health|Minor Potion of Health|Cloth Armor,TRUE,6,1,1,1,1,1,1,,,,,,,,,
,,,,,,,,,,,,,,,,,,,,
,,,,,,,,,,,,,,,,,,,,
,,,,,,,,,,,,,,,,,,,,
,,,,,,,,,,,,,,,,,,,,
